{
    "$schema": "http://json-schema.org/draft-04/schema",
    "title": "Matchmaking request",
    "description": "Structure of the matchmaking request",
    "additionalProperties": false,
    "required": [
        "playerId",
        "timeInQueue"
    ],
    "properties": {
        "playerId": {
            "type": "string",
            "description": "Unique identification of the player. (Could also be a number but strings are more graphic to work with in this demonstration)"
        },
        "timeInQueue": {
            "type": "number",
            "description": "Time spent waiting in queue in seconds."
        }
    }
}