{
    "$schema": "http://json-schema.org/draft-04/schema",
    "title": "Matchmaking request",
    "description": "Structure of the matchmaking request",
    "additionalProperties": false,
    "required": [
        "playerId",
        "ranking",
        "rankingVariance"
    ],
    "properties": {
        "playerId": {
            "type": "string",
            "description": "This might not be needed in this demonstration because you already know for which player you requested thi information, but it might be nice for other uses of the ranking service"
        },
        "ranking": {
            "type": "number",
            "description": "The ranking of the player"
        },
        "rankingVariance":{
            "type": "number",
            "description": "The variance of the ranking of the player"
        }
    }
}